{
    "files": [
        {
            "outputFile": "00.special rooms.xml",
            "paths": [ "./0 - special rooms/" ],
            "startingId": 3000
        },
        {
            "outputFile": "01.basement.xml",
            "paths": [ "./ch1.0 - shared/", "./ch1.1 - basement/" ],
            "startingId": 3000
        },
        {
            "outputFile": "02.cellar.xml",
            "paths": [ "./ch1.0 - shared/", "./ch1.2 - cellar/" ],
            "startingId": 3000
        },
        {
            "outputFile": "03.burning basement.xml",
            "paths": [ "./ch1.0 - shared/", "./ch1.3 - burning/" ],
            "startingId": 3000
        },
        {
            "outputFile": "04.caves.xml",
            "paths": [ "./ch2.0 - shared/", "./ch2.0 - shared noab/", "./ch2.1 - caves/" ],
            "startingId": 3000
        },
        {
            "outputFile": "05.catacombs.xml",
            "paths": [ "./ch2.0 - shared/", "./ch2.0 - shared noab/", "./ch2.2 - catacombs/" ],
            "startingId": 3000
        },
        {
            "outputFile": "06.flooded caves.xml",
            "paths": [ "./ch2.0 - shared/", "./ch2.3 - flooded/" ],
            "startingId": 3000
        },
        {
            "outputFile": "07.depths.xml",
            "paths": [ "./ch3.0 - shared/", "./ch3.1 - depths/"],
            "startingId": 3000
        },
        {
            "outputFile": "08.necropolis.xml",
            "paths": [ "./ch3.0 - shared/", "./ch3.2 - necropolis/" ],
            "startingId": 3000
        },
        {
            "outputFile": "09.dank depths.xml",
            "paths": [ "./ch3.0 - shared/", "./ch3.3 - dank/" ],
            "startingId": 3000
        },
        {
            "outputFile": "10.womb.xml",
            "paths": [ "./ch4.0 - shared/", "./ch4.1 - womb/" ],
            "startingId": 3000
        },
        {
            "outputFile": "11.utero.xml",
            "paths": [ "./ch4.0 - shared/", "./ch4.2 - utero/" ],
            "startingId": 3000
        },
        {
            "outputFile": "12.scarred womb.xml",
            "paths": [ "./ch4.0 - shared/", "./ch4.3 - scarred/" ],
            "startingId": 3000
        },
        {
            "outputFile": "13.blue womb.xml",
            "paths": [ "./ch4.6 - blue/" ],
            "startingId": 3000
        },
        {
            "outputFile": "14.sheol.xml",
            "paths": [ "./ch5.1 - sheol/" ],
            "startingId": 3000
        },
        {
            "outputFile": "15.cathedral.xml",
            "paths": [ "./ch5.2 - cathedral/" ],
            "startingId": 3000
        },
        {
            "outputFile": "16.dark room.xml",
            "paths": [ "./ch6.1 - dark/" ],
            "startingId": 3000
        },
        {
            "outputFile": "17.chest.xml",
            "paths": [ "./ch6.2 - chest/" ],
            "startingId": 3000
        },
        {
            "outputFile": "26.the void_ex.xml",
            "paths": [ "./ch7.1 - void/" ],
            "startingId": 3000
        },
        {
            "outputFile": "36.backwards.xml",
            "paths": [ "./ch7.2 - backwards/" ],
            "startingId": 3000
        },
        {
            "outputFile": "27.downpour.xml",
            "paths": [ "./ch1.4 - downpour/" ],
            "startingId": 3000
        },
        {
            "outputFile": "28.dross.xml",
            "paths": [ "./ch1.5 - dross/" ],
            "startingId": 3000
        },
        {
            "outputFile": "29.mines.xml",
            "paths": [ "./ch2.4 - mines/" ],
            "startingId": 3000
        },
        {
            "outputFile": "30.ashpit.xml",
            "paths": [ "./ch2.5 - ashpit/" ],
            "startingId": 3000
        },
        {
            "outputFile": "31.mausoleum.xml",
            "paths": [ "./ch3.4 - mausoleum/" ],
            "startingId": 3000
        },
        {
            "outputFile": "32.gehenna.xml",
            "paths": [ "./ch3.5 - gehenna/" ],
            "startingId": 3000
        },
        {
            "outputFile": "33.corpse.xml",
            "paths": [ "./ch4.4 - corpse/" ],
            "startingId": 3000
        },
        {
            "outputFile": "35.home.xml",
            "paths": [ "./ch7.3 - home/" ],
            "startingId": 3000
        },

        {
            "outputFile": "./greed/00.special rooms.xml",
            "paths": [ "./greed/0 - special/" ],
            "startingId": 3000
        },
        {
            "outputFile": "./greed/01.basement.xml",
            "paths": [ "./greed/1 - basement/" ],
            "startingId": 3000
        },
        {
            "outputFile": "./greed/02.cellar.xml",
            "paths": [ "./greed/1 - cellar/" ],
            "startingId": 3000
        },
        {
            "outputFile": "./greed/03.burning basement.xml",
            "paths": [ "./greed/1 - burning/" ],
            "startingId": 3000
        },
        {
            "outputFile": "./greed/04.caves.xml",
            "paths": [ "./greed/2 - caves/" ],
            "startingId": 3000
        },
        {
            "outputFile": "./greed/05.catacombs.xml",
            "paths": [ "./greed/2 - catacombs/" ],
            "startingId": 3000
        },
        {
            "outputFile": "./greed/06.flooded caves.xml",
            "paths": [ "./greed/2 - flooded/" ],
            "startingId": 3000
        },
        {
            "outputFile": "./greed/07.depths.xml",
            "paths": [ "./greed/3 - depths/" ],
            "startingId": 3000
        },
        {
            "outputFile": "./greed/08.necropolis.xml",
            "paths": [ "./greed/3 - necropolis/" ],
            "startingId": 3000
        },
        {
            "outputFile": "./greed/09.dank depths.xml",
            "paths": [ "./greed/3 - dank/" ],
            "startingId": 3000
        },
        {
            "outputFile": "./greed/10.womb.xml",
            "paths": [ "./greed/4 - womb/" ],
            "startingId": 3000
        },
        {
            "outputFile": "./greed/11.utero.xml",
            "paths": [ "./greed/4 - utero/" ],
            "startingId": 3000
        },
        {
            "outputFile": "./greed/12.scarred womb.xml",
            "paths": [ "./greed/4 - scarred/" ],
            "startingId": 3000
        },
        {
            "outputFile": "./greed/14.sheol.xml",
            "paths": [ "./greed/5 - sheol/" ],
            "startingId": 3000
        },
        {
            "outputFile": "./greed/24.the shop.xml",
            "paths": [ "./greed/6 - shop/" ],
            "startingId": 3000
        }
    ]
}